…
#filter data by weekday
HourData <-HourData %>% filter(weekday==params$w)
#showing data
HourData <-HourData %>% select(-weekday, -workingday,-instant)
tbl_df(HourData)
```

    ## # A tibble: 2,475 x 12
    ##    dteday season yr     mnth    hr holiday weathersit  temp atemp   hum
    ##    <chr>   <int> <fct> <int> <int> <fct>        <int> <dbl> <dbl> <dbl>
    ##  1 2011-~      1 0         1     0 0                1  0.2  0.258  0.64
    ##  2 2011-~      1 0         1     1 0                1  0.16 0.197  0.74
    ##  3 2011-~      1 0         1     2 0                1  0.16 0.197  0.74
    ##  4 2011-~      1 0         1     4 0                1  0.24 0.227  0.48
    ##  5 2011-~      1 0         1     5 0                1  0.22 0.227  0.47
    ##  6 2011-~      1 0         1     6 0                1  0.2  0.197  0.47
    ##  7 2011-~      1 0         1     7 0                1  0.18 0.182  0.43
    ##  8 2011-~      1 0         1     8 0                1  0.2  0.182  0.4 
    ##  9 2011-~      1 0         1     9 0                1  0.22 0.197  0.37
    ## 10 2011-~      1 0         1    10 0                1  0.22 0.197  0.37
    ## # ... with 2,465 more rows, and 2 more variables: windspeed <dbl>, cnt <int>
…
