…
#filter data by weekday
HourData <-HourData %>% filter(weekday==params$w)
#showing data
HourData <-HourData %>% select(-weekday, -workingday,-instant)
tbl_df(HourData)
```

    ## # A tibble: 2,471 x 12
    ##    dteday season yr     mnth    hr holiday weathersit  temp atemp   hum
    ##    <chr>   <int> <fct> <int> <int> <fct>        <int> <dbl> <dbl> <dbl>
    ##  1 2011-~      1 0         1     0 0                1  0.18 0.242  0.55
    ##  2 2011-~      1 0         1     1 0                1  0.16 0.227  0.64
    ##  3 2011-~      1 0         1     2 0                1  0.16 0.227  0.64
    ##  4 2011-~      1 0         1     4 0                2  0.16 0.197  0.64
    ##  5 2011-~      1 0         1     5 0                2  0.14 0.182  0.69
    ##  6 2011-~      1 0         1     6 0                2  0.14 0.167  0.63
    ##  7 2011-~      1 0         1     7 0                2  0.16 0.227  0.59
    ##  8 2011-~      1 0         1     8 0                1  0.16 0.227  0.59
    ##  9 2011-~      1 0         1     9 0                2  0.18 0.242  0.51
    ## 10 2011-~      1 0         1    10 0                1  0.2  0.258  0.47
    ## # ... with 2,461 more rows, and 2 more variables: windspeed <dbl>, cnt <int>
…
