…
#filter data by weekday
HourData <-HourData %>% filter(weekday==params$w)
#showing data
HourData <-HourData %>% select(-weekday, -workingday,-instant)
tbl_df(HourData)
```

    ## # A tibble: 2,512 x 12
    ##    dteday season yr     mnth    hr holiday weathersit  temp atemp   hum
    ##    <chr>   <int> <fct> <int> <int> <fct>        <int> <dbl> <dbl> <dbl>
    ##  1 2011-~      1 0         1     0 0                1  0.24 0.288  0.81
    ##  2 2011-~      1 0         1     1 0                1  0.22 0.273  0.8 
    ##  3 2011-~      1 0         1     2 0                1  0.22 0.273  0.8 
    ##  4 2011-~      1 0         1     3 0                1  0.24 0.288  0.75
    ##  5 2011-~      1 0         1     4 0                1  0.24 0.288  0.75
    ##  6 2011-~      1 0         1     5 0                2  0.24 0.258  0.75
    ##  7 2011-~      1 0         1     6 0                1  0.22 0.273  0.8 
    ##  8 2011-~      1 0         1     7 0                1  0.2  0.258  0.86
    ##  9 2011-~      1 0         1     8 0                1  0.24 0.288  0.75
    ## 10 2011-~      1 0         1     9 0                1  0.32 0.348  0.76
    ## # ... with 2,502 more rows, and 2 more variables: windspeed <dbl>, cnt <int>
…
