…
#read in hour data
HourData <- read.csv("hour.csv")
HourData<- HourData %>% select(-casual, -registered)
HourData$yr <- as.factor(HourData$yr)
HourData$holiday <- as.factor(HourData$holiday)
HourData$workingday <- as.factor(HourData$workingday)

#filter data by weekday
HourData <-HourData %>% filter(weekday==params$w)
#showing data
HourData <-HourData %>% select(-weekday, -workingday,-instant)
tbl_df(HourData)

## # A tibble: 2,487 x 12
##    dteday     season yr     mnth    hr holiday weathersit  temp atemp   hum windspeed   cnt
##    <fct>       <int> <fct> <int> <int> <fct>        <int> <dbl> <dbl> <dbl>     <dbl> <int>
##  1 2011-01-07      1 0         1     0 0                2  0.2  0.197  0.64     0.194    17
##  2 2011-01-07      1 0         1     1 0                2  0.2  0.197  0.69     0.224     7
##  3 2011-01-07      1 0         1     2 0                2  0.2  0.197  0.69     0.224     1
##  4 2011-01-07      1 0         1     4 0                2  0.2  0.212  0.69     0.134     1
##  5 2011-01-07      1 0         1     5 0                3  0.22 0.273  0.55     0         5
##  6 2011-01-07      1 0         1     6 0                2  0.2  0.258  0.69     0        34
##  7 2011-01-07      1 0         1     7 0                1  0.2  0.212  0.69     0.134    84
##  8 2011-01-07      1 0         1     8 0                1  0.2  0.197  0.51     0.254   210
##  9 2011-01-07      1 0         1     9 0                1  0.2  0.182  0.47     0.298   134
## 10 2011-01-07      1 0         1    10 0                1  0.22 0.197  0.37     0.328    63
## # … with 2,477 more rows
…
