…
#filter data by weekday
HourData <-HourData %>% filter(weekday==params$w)
#showing data
HourData <-HourData %>% select(-weekday, -workingday,-instant)
tbl_df(HourData)
```

```
## # A tibble: 2,487 x 12
##    dteday season yr     mnth    hr holiday weathersit  temp atemp   hum
##    <chr>   <int> <fct> <int> <int> <fct>        <int> <dbl> <dbl> <dbl>
##  1 2011-~      1 0         1     0 0                2  0.2  0.197  0.64
##  2 2011-~      1 0         1     1 0                2  0.2  0.197  0.69
##  3 2011-~      1 0         1     2 0                2  0.2  0.197  0.69
##  4 2011-~      1 0         1     4 0                2  0.2  0.212  0.69
##  5 2011-~      1 0         1     5 0                3  0.22 0.273  0.55
##  6 2011-~      1 0         1     6 0                2  0.2  0.258  0.69
##  7 2011-~      1 0         1     7 0                1  0.2  0.212  0.69
##  8 2011-~      1 0         1     8 0                1  0.2  0.197  0.51
##  9 2011-~      1 0         1     9 0                1  0.2  0.182  0.47
## 10 2011-~      1 0         1    10 0                1  0.22 0.197  0.37
## # ... with 2,477 more rows, and 2 more variables: windspeed <dbl>, cnt <int>
```
…
