…
#read in hour data
HourData <- read.csv("hour.csv")
HourData<- HourData %>% select(-casual, -registered)
HourData$yr <- as.factor(HourData$yr)
HourData$holiday <- as.factor(HourData$holiday)
HourData$workingday <- as.factor(HourData$workingday)

#filter data by weekday
HourData <-HourData %>% filter(weekday==params$w)
#showing data
HourData <-HourData %>% select(-weekday, -workingday,-instant)
tbl_df(HourData)

## # A tibble: 2,479 x 12
##    dteday     season yr     mnth    hr holiday weathersit  temp atemp   hum windspeed   cnt
##    <fct>       <int> <fct> <int> <int> <fct>        <int> <dbl> <dbl> <dbl>     <dbl> <int>
##  1 2011-01-03      1 0         1     0 0                1  0.22 0.197  0.44     0.358     5
##  2 2011-01-03      1 0         1     1 0                1  0.2  0.167  0.44     0.418     2
##  3 2011-01-03      1 0         1     4 0                1  0.16 0.136  0.47     0.388     1
##  4 2011-01-03      1 0         1     5 0                1  0.16 0.136  0.47     0.284     3
##  5 2011-01-03      1 0         1     6 0                1  0.14 0.106  0.5      0.388    30
##  6 2011-01-03      1 0         1     7 0                1  0.14 0.136  0.5      0.194    64
##  7 2011-01-03      1 0         1     8 0                1  0.14 0.121  0.5      0.284   154
##  8 2011-01-03      1 0         1     9 0                1  0.16 0.136  0.43     0.388    88
##  9 2011-01-03      1 0         1    10 0                1  0.18 0.167  0.43     0.254    44
## 10 2011-01-03      1 0         1    11 0                1  0.2  0.182  0.4      0.328    51
## # … with 2,469 more rows
…
