…
#read in hour data
HourData <- read.csv("hour.csv")
HourData<- HourData %>% select(-casual, -registered)
HourData$yr <- as.factor(HourData$yr)
HourData$holiday <- as.factor(HourData$holiday)
HourData$workingday <- as.factor(HourData$workingday)

#filter data by weekday
HourData <-HourData %>% filter(weekday==params$w)
#showing data
HourData <-HourData %>% select(-weekday, -workingday,-instant)
tbl_df(HourData)
```

    ## # A tibble: 2,479 x 12
    ##    dteday season yr     mnth    hr holiday weathersit  temp atemp   hum
    ##    <chr>   <int> <fct> <int> <int> <fct>        <int> <dbl> <dbl> <dbl>
    ##  1 2011-~      1 0         1     0 0                1  0.22 0.197  0.44
    ##  2 2011-~      1 0         1     1 0                1  0.2  0.167  0.44
    ##  3 2011-~      1 0         1     4 0                1  0.16 0.136  0.47
    ##  4 2011-~      1 0         1     5 0                1  0.16 0.136  0.47
    ##  5 2011-~      1 0         1     6 0                1  0.14 0.106  0.5 
    ##  6 2011-~      1 0         1     7 0                1  0.14 0.136  0.5 
    ##  7 2011-~      1 0         1     8 0                1  0.14 0.121  0.5 
    ##  8 2011-~      1 0         1     9 0                1  0.16 0.136  0.43
    ##  9 2011-~      1 0         1    10 0                1  0.18 0.167  0.43
    ## 10 2011-~      1 0         1    11 0                1  0.2  0.182  0.4 
    ## # ... with 2,469 more rows, and 2 more variables: windspeed <dbl>, cnt <int>
…
