…
#filter data by weekday
HourData <-HourData %>% filter(weekday==params$w)
#showing data
HourData <-HourData %>% select(-weekday, -workingday,-instant)
tbl_df(HourData)
```

    ## # A tibble: 2,502 x 12
    ##    dteday season yr     mnth    hr holiday weathersit  temp atemp   hum
    ##    <chr>   <int> <fct> <int> <int> <fct>        <int> <dbl> <dbl> <dbl>
    ##  1 2011-~      1 0         1     0 0                2  0.46 0.454  0.88
    ##  2 2011-~      1 0         1     1 0                2  0.44 0.439  0.94
    ##  3 2011-~      1 0         1     2 0                2  0.42 0.424  1   
    ##  4 2011-~      1 0         1     3 0                2  0.46 0.454  0.94
    ##  5 2011-~      1 0         1     4 0                2  0.46 0.454  0.94
    ##  6 2011-~      1 0         1     6 0                3  0.42 0.424  0.77
    ##  7 2011-~      1 0         1     7 0                2  0.4  0.409  0.76
    ##  8 2011-~      1 0         1     8 0                3  0.4  0.409  0.71
    ##  9 2011-~      1 0         1     9 0                2  0.38 0.394  0.76
    ## 10 2011-~      1 0         1    10 0                2  0.36 0.348  0.81
    ## # ... with 2,492 more rows, and 2 more variables: windspeed <dbl>, cnt <int>
…
