…
#read in hour data
HourData <- read.csv("hour.csv")
HourData<- HourData %>% select(-casual, -registered)
HourData$yr <- as.factor(HourData$yr)
HourData$holiday <- as.factor(HourData$holiday)
HourData$workingday <- as.factor(HourData$workingday)

#filter data by weekday
HourData <-HourData %>% filter(weekday==params$w)
#showing data
HourData <-HourData %>% select(-weekday, -workingday,-instant)
tbl_df(HourData)

## # A tibble: 2,471 x 12
##    dteday     season yr     mnth    hr holiday weathersit  temp atemp   hum windspeed   cnt
##    <fct>       <int> <fct> <int> <int> <fct>        <int> <dbl> <dbl> <dbl>     <dbl> <int>
##  1 2011-01-06      1 0         1     0 0                1  0.18 0.242  0.55    0         11
##  2 2011-01-06      1 0         1     1 0                1  0.16 0.227  0.64    0          4
##  3 2011-01-06      1 0         1     2 0                1  0.16 0.227  0.64    0          2
##  4 2011-01-06      1 0         1     4 0                2  0.16 0.197  0.64    0.0896     1
##  5 2011-01-06      1 0         1     5 0                2  0.14 0.182  0.69    0.0896     4
##  6 2011-01-06      1 0         1     6 0                2  0.14 0.167  0.63    0.104     36
##  7 2011-01-06      1 0         1     7 0                2  0.16 0.227  0.59    0         95
##  8 2011-01-06      1 0         1     8 0                1  0.16 0.227  0.59    0        219
##  9 2011-01-06      1 0         1     9 0                2  0.18 0.242  0.51    0        122
## 10 2011-01-06      1 0         1    10 0                1  0.2  0.258  0.47    0         45
## # … with 2,461 more rows
…
