…
#read in hour data
HourData <- read.csv("hour.csv")
HourData<- HourData %>% select(-casual, -registered)
HourData$yr <- as.factor(HourData$yr)
HourData$holiday <- as.factor(HourData$holiday)
HourData$workingday <- as.factor(HourData$workingday)

#filter data by weekday
HourData <-HourData %>% filter(weekday==params$w)
#showing data
HourData <-HourData %>% select(-weekday, -workingday,-instant)
tbl_df(HourData)

## # A tibble: 2,453 x 12
##    dteday season yr     mnth    hr holiday weathersit  temp atemp   hum
##    <chr>   <int> <fct> <int> <int> <fct>        <int> <dbl> <dbl> <dbl>
##  1 2011-~      1 0         1     0 0                1  0.16 0.182  0.55
##  2 2011-~      1 0         1     1 0                1  0.16 0.182  0.59
##  3 2011-~      1 0         1     2 0                1  0.14 0.152  0.63
##  4 2011-~      1 0         1     4 0                1  0.14 0.182  0.63
##  5 2011-~      1 0         1     5 0                1  0.12 0.152  0.68
##  6 2011-~      1 0         1     6 0                1  0.12 0.152  0.74
##  7 2011-~      1 0         1     7 0                1  0.12 0.152  0.74
##  8 2011-~      1 0         1     8 0                1  0.14 0.152  0.69
##  9 2011-~      1 0         1     9 0                1  0.16 0.152  0.64
## 10 2011-~      1 0         1    10 0                2  0.16 0.136  0.69
## # ... with 2,443 more rows, and 2 more variables: windspeed <dbl>, cnt <int>
…
