…
#read in hour data
HourData <- read.csv("hour.csv")
HourData<- HourData %>% select(-casual, -registered)
HourData$yr <- as.factor(HourData$yr)
HourData$holiday <- as.factor(HourData$holiday)
HourData$workingday <- as.factor(HourData$workingday)

#filter data by weekday
HourData <-HourData %>% filter(weekday==params$w)
#showing data
HourData <-HourData %>% select(-weekday, -workingday,-instant)
tbl_df(HourData)

## # A tibble: 2,475 x 12
##    dteday     season yr     mnth    hr holiday weathersit  temp atemp   hum windspeed   cnt
##    <fct>       <int> <fct> <int> <int> <fct>        <int> <dbl> <dbl> <dbl>     <dbl> <int>
##  1 2011-01-05      1 0         1     0 0                1  0.2  0.258  0.64    0          6
##  2 2011-01-05      1 0         1     1 0                1  0.16 0.197  0.74    0.0896     6
##  3 2011-01-05      1 0         1     2 0                1  0.16 0.197  0.74    0.0896     2
##  4 2011-01-05      1 0         1     4 0                1  0.24 0.227  0.48    0.224      2
##  5 2011-01-05      1 0         1     5 0                1  0.22 0.227  0.47    0.164      3
##  6 2011-01-05      1 0         1     6 0                1  0.2  0.197  0.47    0.224     33
##  7 2011-01-05      1 0         1     7 0                1  0.18 0.182  0.43    0.194     88
##  8 2011-01-05      1 0         1     8 0                1  0.2  0.182  0.4     0.298    195
##  9 2011-01-05      1 0         1     9 0                1  0.22 0.197  0.37    0.328    115
## 10 2011-01-05      1 0         1    10 0                1  0.22 0.197  0.37    0.328     57
## # … with 2,465 more rows
…
